<?xml version="1.0" encoding="UTF-8" standalone="no"?>
<svg width="305px" height="305px" viewBox="0 0 305 305" version="1.1" xmlns="http://www.w3.org/2000/svg" xmlns:xlink="http://www.w3.org/1999/xlink">
    <!-- Generator: Sketch 43.2 (39069) - http://www.bohemiancoding.com/sketch -->
    <title>Slice</title>
    <desc>Created with Sketch.</desc>
    <defs></defs>
    <g id="Page-1" stroke="none" stroke-width="1" fill="none" fill-rule="evenodd">
        <g id="Awards-icon-black" transform="translate(7.000000, 31.000000)">
            <g id="Group" stroke="#FFFFFF" stroke-width="7.9546" stroke-linecap="round" stroke-linejoin="round">
                <path d="M218.1,26.1 C225.6,6.2 192,0 192,0 C192,0 198,33.6 218.1,26.1 Z" id="Shape"></path>
                <path d="M243.9,51.9 C263.5,43.3 243.9,15.1 243.9,15.1 C243.9,15.1 224.6,43.3 243.9,51.9 Z" id="Shape"></path>
                <path d="M258.7,90.2 C280.1,89.7 273,56.3 273,56.3 C273,56.3 244.1,74.6 258.7,90.2 Z" id="Shape"></path>
                <path d="M258.2,125.7 C275.9,137.4 289.2,106.1 289.2,106.1 C289.2,106.1 255.1,104.6 258.2,125.7 Z" id="Shape"></path>
                <path d="M246,159.4 C259,176.1 281.7,150.5 281.7,150.5 C281.7,150.5 249.9,138.5 246,159.4 Z" id="Shape"></path>
                <path d="M222.2,190.4 C231.1,209.7 259,189.9 259,189.9 C259,189.9 230.6,170.8 222.2,190.4 Z" id="Shape"></path>
                <path d="M72,26.1 C64.4,6.2 98,0 98,0 C98,0 92,33.6 72,26.1 Z" id="Shape"></path>
                <path d="M46.1,51.9 C26.5,43.3 46.1,15.1 46.1,15.1 C46.1,15.1 65.4,43.3 46.1,51.9 Z" id="Shape"></path>
                <path d="M31.3,90.2 C9.9,89.7 17,56.3 17,56.3 C17,56.3 45.9,74.6 31.3,90.2 Z" id="Shape"></path>
                <path d="M31.8,125.7 C14.1,137.4 0.8,106.1 0.8,106.1 C0.8,106.1 34.9,104.6 31.8,125.7 Z" id="Shape"></path>
                <path d="M44,159.4 C31,176.1 8.3,150.5 8.3,150.5 C8.3,150.5 40.1,138.5 44,159.4 Z" id="Shape"></path>
                <path d="M67.8,190.4 C58.9,209.7 31,189.9 31,189.9 C31,189.9 59.4,170.8 67.8,190.4 Z" id="Shape"></path>
                <path d="M218.1,26.1 C241.8,45.4 257,77.2 257,110.4 C257,158.4 225.4,198.8 181.6,211.4 C163.3,216.6 137.3,221.8 129.4,242.7" id="Shape"></path>
                <path d="M72,26.1 C48.3,45.4 33.1,77.2 33.1,110.4 C33.1,158.4 64.7,198.8 108.5,211.4 C126.8,216.6 152.8,221.8 160.7,242.7" id="Shape"></path>
            </g>
            <path d="M145,64.5 C163.7,64.5 179.7,76.4 186.1,93.2 L104,93.2 C110.4,76.5 126.3,64.5 145,64.5 L145,64.5 Z M216.3,118.4 C216.6,115.5 216.9,112.6 216.9,109.6 C216.9,69 184.7,36.1 145,36.1 C105.3,36.1 73.1,69 73.1,109.6 C73.1,150.2 105.3,183.1 145,183.1 C176.1,183.1 201.1,167.8 213.3,145.2 L177.4,145.2 C169.9,151.1 161.3,154.7 144.9,154.7 C123.5,154.7 105.7,139.1 101.7,118.4 L216.3,118.4 Z" id="Shape" fill="#FFFFFF" fill-rule="nonzero"></path>
        </g>
    </g>
</svg>