<?xml version="1.0" encoding="utf-8"?>
<!-- Generator: Adobe Illustrator 21.1.0, SVG Export Plug-In . SVG Version: 6.00 Build 0)  -->
<svg version="1.1" id="AIR_CANADA_-_colour" xmlns="http://www.w3.org/2000/svg" xmlns:xlink="http://www.w3.org/1999/xlink"
	 x="0px" y="0px" viewBox="0 0 500 60" style="enable-background:new 0 0 500 60;" xml:space="preserve">
<style type="text/css">
	.st0{fill:#EE1B2E;}
</style>
<g>
	<path class="st0" d="M389.4,3.9c6.7-1.5,14-0.5,20,2.9c5.3,3,9.7,7.8,11.9,13.6c1.8,4.6,2.1,9.7,1,14.5c-1.4,5.8-4.9,11.1-9.7,14.7
		c-4.1,3.1-9.1,5-14.2,5.4c0-1,0-2.1,0-3.1c3.5-0.4,6.9-1.6,9.9-3.5c5.3-3.3,9.2-8.8,10.3-14.9c0.8-4.1,0.4-8.5-1.1-12.4
		c-2-5.2-6-9.5-11-12c-5.4-2.8-11.8-3.4-17.6-1.7c-5,1.4-9.4,4.6-12.5,8.8c-3.4,4.6-4.8,10.6-4,16.2c0.7,4.9,3.1,9.4,6.7,12.8
		c3.9,3.8,9.1,6.1,14.4,6.7c1.4-3.4,1.5-7.1,1.3-10.8c0-0.9-0.9-2-1.8-1.4c-2.3,1.1-4.5,2.6-6.8,3.8c-0.5-0.6-1-1.5-2-1.4
		c-1.5,0.1-3,0.6-4.5,1c0.6-1.5,1.5-3,1.7-4.7c0.1-0.7-0.5-1.2-0.9-1.8c1-0.8,2.5-1.4,2.9-2.8c-0.4-0.8-1.2-1.1-1.9-1.5
		c-1.5-0.7-3-1.3-4.5-1.9c0.7-0.6,1.7-1.4,1.2-2.5c-0.9-1.8-2.1-3.3-3.1-5c1.8-0.1,3.5,0.2,5.3-0.1c1.1-0.2,1.5-1.4,1.9-2.3
		c1.4,1.1,2.9,2.1,4.4,3.1c0.6,0.4,1.4,0.9,2.2,0.7c0.8-0.3,1.1-1.2,1-2c-0.2-2.3-0.5-4.6-0.7-6.8c1.2,0.4,3,0.5,3.7-0.8
		c1-2,1.7-4,2.7-6c1.1,2.1,2,4.4,3.3,6.4c0.7,1,2,0.7,3.1,0.5c-0.3,2.4-0.6,4.8-0.7,7.2c0,1.3,1.5,2.1,2.6,1.5
		c1.9-1,3.6-2.4,5.3-3.6c0.3,0.9,0.6,2.1,1.7,2.3c1.8,0.3,3.7,0,5.5,0.1c-1.1,1.5-2.4,2.9-3.2,4.7c-0.4,1.1,0.4,2,1,2.8
		c-1.5,0.6-3,1.3-4.5,2c-0.6,0.3-1.4,0.7-1.6,1.4c0.1,1.6,1.9,2,3,2.8c-0.5,0.6-1.4,1.2-1,2.1c0.5,1.5,1.2,2.9,1.8,4.4
		c-1.6-0.3-3.2-1-4.9-1c-0.9,0-1.2,0.8-1.6,1.4c-2.1-1.2-4.2-2.4-6.4-3.5c-0.6-0.3-1.7-0.8-2,0.1c-0.4,2-0.1,4.1-0.2,6.2
		c-0.1,3.5-0.1,7.2-1.8,10.4h-0.1c-1.5-2.2-4.5-1.8-6.7-2.6c-6.8-1.9-12.9-6.5-16.3-12.7c-2.2-3.9-3.3-8.4-3.2-12.8
		c0.1-6.5,2.9-12.9,7.6-17.4C379.8,7.4,384.5,4.9,389.4,3.9z"/>
	<path class="st0" d="M179.1,20c3.6-1.1,7.4-1,11-0.1c0.9,0.2,1.9,0.2,2.8,0c0,2,0,4.1,0,6.1c-1.5-1-3.2-1.8-5.1-2.1
		c-3.2-0.6-6.8,0.8-8.6,3.5c-2,2.8-1.7,7,0.6,9.5c1.7,1.8,4.2,2.7,6.7,2.6c2.5,0,4.8-1.2,6.8-2.6c0,2.2,0,4.3,0,6.5
		c-1.7-0.6-3.4,0-5,0.3c-3.6,0.9-7.4,0.5-10.9-0.9c-3.2-1.3-5.8-3.9-6.8-7.2c-1.1-3.6-0.6-7.8,1.7-10.9
		C173.9,22.4,176.4,20.8,179.1,20z"/>
	<path class="st0" d="M109.9,20.4c3.3,0,6.6,0,9.8,0c-1,1.8-1,4-1,6c0,3.7,0,7.4,0,11.1c0,2,0,4.1,1,5.9c-3.3,0-6.6,0-9.8,0
		c1.5-2.4,1.4-5.3,1.4-8c-0.1-3.7,0.1-7.4-0.2-11.1C111,22.9,110.6,21.6,109.9,20.4z"/>
	<path class="st0" d="M231.4,20.4c2.6,0.1,5.3,0,7.9,0c0.5-0.1,0.8,0.4,1.1,0.7c3.4,3.9,6.7,7.8,10.1,11.7c0-4.1,0-8.2,0-12.3
		c2.2,0,4.5,0,6.7,0c-0.8,1.2-1.2,2.5-1.3,3.9c-0.2,3.9-0.2,7.9-0.1,11.9c0.1,2.5-0.2,5.2,1.4,7.3c-2.3,0-4.5,0-6.8,0
		c-4.1-5-8.3-10.1-12.5-15.1c0,5,0,10.1,0,15.1c-2.2,0-4.5,0-6.7,0c1.2-2.1,0.9-4.6,1.1-7c0-4.3,0.1-8.6-0.1-12.9
		C232.2,22.5,231.8,21.4,231.4,20.4z"/>
	<path class="st0" d="M145.7,34.6c1.5-0.6,3-1.5,3.8-3c1.6-2.7,1.4-6.5-0.8-8.7c-1.7-1.8-4.3-2.3-6.7-2.4c-5,0-10,0-15,0
		c1.1,1.7,1.4,3.7,1.4,5.7c0,3.6,0,7.2,0,10.8c0,2.3-0.1,4.6-1.4,6.6c2.7,0,5.4,0,8.2,0c0-2.7,0-5.4,0-8.2c1.4,0,2.7,0,4.1,0
		c1.4,2.7,2.8,5.4,4.2,8.2c3,0,5.9,0,8.9,0C149.3,41.2,148.1,37.4,145.7,34.6z M142.2,30.6c-2.2,1-4.7,0.5-7.1,0.6
		c0-2.3,0-4.6,0-6.9c2.3,0.1,4.7-0.4,6.9,0.6C144.3,25.9,144.4,29.5,142.2,30.6z"/>
	<path class="st0" d="M315.6,24.2c-2.5-2.7-6.3-3.8-9.9-3.8c-4,0-8,0-12,0c1.4,2,1.3,4.4,1.4,6.7c0,3.4,0,6.7,0,10.1
		c-0.1,2.1,0,4.3-1,6.3c4,0,8,0,12,0c3.5,0,7.1-1.2,9.5-3.7C319.6,35.7,319.6,28.3,315.6,24.2z M308.1,38.5c-1.8,1.3-4.2,1-6.3,1
		c0-5.1,0-10.1,0-15.2c2.2,0,4.7-0.2,6.5,1.2c2,1.6,2.6,4.3,2.5,6.8C310.7,34.6,310.1,37.2,308.1,38.5z"/>
	<path class="st0" d="M101.1,36.6c-1.5-3.5-2.8-7.1-4.1-10.7c-0.7-1.8-1.8-3.6-1.1-5.5c-3.6,0-7.2,0-10.8,0c0.2,1.6-0.2,3.2-0.8,4.6
		c-1.7,3.7-3.2,7.6-4.5,11.4c-1.1,2.4-2,5-3.7,7c2.5,0,5,0,7.5,0c0.5-1.5,1.1-3,1.7-4.5c3,0,6,0,9,0c0.6,1.5,1.2,3,1.7,4.5
		c3,0,5.9,0,8.9,0C102.8,41.6,102,39,101.1,36.6z M85.8,35.1c1.3-3.2,2.5-6.4,3.8-9.5c1.2,3.2,2.3,6.4,3.4,9.5
		C90.6,35.1,88.2,35.1,85.8,35.1z"/>
	<path class="st0" d="M223,36.8c-1.5-3.5-2.7-7-4-10.6c-0.7-1.9-1.9-3.7-1.6-5.8c-3.5,0-7,0-10.5,0c0.2,1.5-0.1,3-0.8,4.4
		c-1.7,3.8-3.2,7.6-4.6,11.5c-1.1,2.4-2.2,4.9-3.8,7.1c2.5,0,5,0,7.5,0c0.5-1.5,1-3,1.4-4.5c3.1,0,6.2,0,9.3,0
		c0.6,1.5,1.1,3,1.7,4.5c3,0,5.9,0,8.8,0C224.6,41.7,223.8,39.1,223,36.8z M208,35.1c1.1-3.2,2.3-6.4,3.4-9.5
		c1.2,3.2,2.3,6.4,3.4,9.5C212.6,35.1,210.3,35.1,208,35.1z"/>
	<path class="st0" d="M285.7,35.2c-1.6-3.9-2.9-7.9-4.5-11.8c-0.4-1-0.4-2.1-0.1-3.1c-3.6,0-7.2,0-10.8,0c0.2,1.5-0.1,2.9-0.7,4.3
		c-1.7,3.8-3.3,7.7-4.7,11.7c-1.1,2.4-2,5-3.8,7.1c2.5,0,5,0,7.4,0c0.6-1.5,1.1-3,1.7-4.5c3,0,6,0,9,0c0.5,1.5,1.2,3,1.7,4.5
		c2.9,0,5.9,0,8.8,0C287.6,41.2,287,38,285.7,35.2z M271.4,35.1c1.2-3.2,2.2-6.4,3.5-9.5c1.1,3.2,2.3,6.3,3.4,9.5
		C275.9,35.1,273.6,35.1,271.4,35.1z"/>
	<path class="st0" d="M345.6,36.9c-1.3-3.7-2.6-7.4-3.9-11c-0.7-1.8-1.7-3.5-1.5-5.5c-3.5,0-7,0-10.5,0c0.2,1.4-0.1,2.8-0.6,4.1
		c-1.7,4-3.4,8-5.1,12c-1,2.4-1.9,4.9-3.5,7c2.5,0,5,0,7.5,0c0.5-1.5,1-3,1.4-4.5c3.1,0,6.2,0,9.3,0c0.6,1.5,1.2,3,1.7,4.5
		c2.8,0,5.7,0,8.5,0C347.5,41.5,346.5,39.2,345.6,36.9z M330.5,35.1c1.1-3.2,2.3-6.4,3.4-9.5c1.2,3.2,2.3,6.3,3.4,9.5
		C335.1,35.1,332.8,35.1,330.5,35.1z"/>
</g>
</svg>
