<?xml version="1.0" encoding="utf-8"?>
<!-- Generator: Adobe Illustrator 21.1.0, SVG Export Plug-In . SVG Version: 6.00 Build 0)  -->
<svg version="1.1" id="Macy_x27_s_-_colour" xmlns="http://www.w3.org/2000/svg" xmlns:xlink="http://www.w3.org/1999/xlink"
	 x="0px" y="0px" viewBox="0 0 500 60" style="enable-background:new 0 0 500 60;" xml:space="preserve">
<style type="text/css">
	.st0{fill:#E70000;}
</style>
<g>
	<path d="M328.9,11.2c0.2-0.7,0.4-1.3,0.6-2c0.4,0.6,0.5,1.3,0.8,2c0.7,0,1.5,0.1,2.2,0.1c-0.5,0.4-1.2,0.9-1.8,1.3
		c0.3,0.7,0.5,1.4,0.7,2.2c-0.7-0.4-1.2-0.9-2-1.2c-0.6,0.4-1.2,0.8-1.8,1.2c0.3-0.7,0.4-1.4,0.7-2.1c-0.6-0.4-1.2-0.9-1.9-1.3
		C327.3,11.2,328.1,11.2,328.9,11.2z"/>
	<path d="M332.8,17.2c1-0.2,2-0.1,3,0.1c1.9,0.4,3.5,1.7,4.5,3.2c0.7,1.1,1,2.3,1.2,3.5c-0.4,0-1,0-1.4,0c-0.1-1-0.4-2-1-2.8
		c-0.9-1.2-2-2.1-3.5-2.5c-1.4-0.4-3-0.2-4.3,0.5c-1.2,0.6-2,1.8-2.5,3c-0.4,1-0.4,2-0.2,3c0.2,1.4,1.1,2.7,2.2,3.4
		c1.7,1.1,3.7,1.6,5.4,2.5c2,0.9,3.9,2.1,5.1,4c0.7,1.1,1.1,2.3,1.2,3.7v0.5c0,3.4-2.2,6.6-5.3,7.9c-1.2,0.4-2.3,0.7-3.6,0.7
		c-1.5,0-3-0.4-4.4-1.2c-1.1-0.8-2.1-1.6-2.9-2.8c-1.2-1.8-1.9-3.8-1.9-6c0.4,0,1,0,1.4-0.1c0.2,2,0.8,3.9,1.9,5.5
		c1,1.2,2.3,2.2,3.8,2.8c2.7,1,5.7-0.2,7.5-2.2c1.8-2,2.4-5.1,1.2-7.4c-0.7-1.4-2-2.4-3.3-3.2c-2.3-1.4-5-2-7.3-3.5
		c-1-0.7-1.9-1.6-2.3-2.8c-0.8-2-0.7-4.5,0.4-6.5C329.1,18.8,330.9,17.6,332.8,17.2z"/>
	<path d="M202.3,18.2c2-0.8,4.2-1.2,6.3-0.9c2.7,0.4,5.2,1.7,6.9,3.7c0.9,1,1.5,2.1,2.1,3.3c0.6-1.5,1.6-2.9,2.8-4
		c1.7-1.6,3.8-2.6,6.1-2.9c1.7-0.2,3.4-0.2,5.1,0.4c1.7,0.4,3.1,1.4,4.4,2.6c1.7,1.6,2.9,3.7,3.4,6.1c0.3,1.7,0.3,3.4,0.3,5.1
		c0,5.4,0,10.9,0,16.4c-0.5,0-1.2-0.1-1.7-0.1c0-6.7,0-13.4,0-20c-0.3-2.3-1.2-4.5-3-6.1c-1.7-1.6-3.9-2.7-6.2-2.7
		c-2.5-0.2-5,0.7-6.9,2.2c-1.5,1.2-2.6,2.9-3.1,4.7c-0.1,0.4-0.4,0.8-0.3,1.2c0,6.9,0,13.8-0.1,20.7c-0.5,0-1.1,0-1.6,0
		c0-5.7,0-11.3-0.1-17c-0.1-1.6,0.1-3.3-0.4-4.9c-0.6-1.6-1.5-3.1-2.8-4.3c-1.8-1.6-4.1-2.7-6.5-2.6c-4.2-0.2-8.2,2.8-9.5,6.8
		c-0.1,0.4-0.4,0.9-0.4,1.3c0,6.9-0.1,13.9-0.1,20.8c-0.5,0-1.1-0.1-1.6-0.1c0-10,0-19.9,0-29.8c0.5,0,1.2,0,1.7,0
		c0,1.6,0,3.1,0.1,4.7C198.6,20.7,200.4,19.2,202.3,18.2z"/>
	<path d="M279.2,19.9c4.5-3.2,10.9-3.7,15.9-1.2c1.8,0.9,3.3,2.1,4.5,3.7c1.1,1.2,1.9,2.5,2.5,3.9c-0.6,0.1-1.2,0.1-1.8,0.2
		c-1.1-2.1-2.7-4.1-4.7-5.4c-1.2-0.8-2.7-1.4-4.1-1.9c-1.3-0.4-2.8-0.4-4.2-0.4c-2.3,0-4.6,0.9-6.6,2.1c-2,1.2-3.7,3-4.8,5.2
		c-0.9,1.8-1.5,3.7-1.5,5.6c0,1.3,0,2.8,0.4,4c0.6,2.1,1.6,4.2,3.1,5.8c0.8,0.9,1.7,1.8,2.8,2.3c1.5,0.8,3,1.7,4.8,2
		c2.6,0.4,5.3,0.3,7.8-0.8c1.3-0.6,2.6-1.2,3.7-2.2c1.3-1.2,2.6-2.7,3.4-4.4c0.6,0,1.2,0,1.9,0c-0.6,1.2-1.2,2.4-2,3.4
		c-1.6,2-3.7,3.7-6,4.7c-4.8,2-10.6,1.6-14.9-1.5c-2.2-1.6-4.1-3.7-5.2-6.2c-0.6-1.4-1-2.9-1.2-4.5c-0.3-2.9,0-6.1,1.4-8.6
		C275.5,23.3,277.2,21.4,279.2,19.9z"/>
	<path class="st0" d="M173.5,17.3c0.3,0.5,0.4,1.1,0.6,1.7c1.1,3.3,2.1,6.6,3.2,9.9c4,0,8,0,12,0c-1.7,1.6-3.7,2.9-5.5,4.2
		c-1.3,1.1-2.9,2-4.1,3.1c1.2,3.8,2.5,7.8,3.7,11.6c-3.4-2.3-6.6-4.9-10-7.1c-3.4,2.2-6.7,4.7-10,7.1c1.2-3.9,2.5-7.8,3.7-11.7
		c-3.2-2.5-6.7-4.8-9.9-7.3c4.1-0.1,8.2-0.1,12.3-0.1c1.1-3.2,2-6.3,3.1-9.5C173,18.7,173.2,18,173.5,17.3z"/>
	<path d="M300.9,18c0.6,0,1.2,0,1.8,0c2.8,6.9,5.5,13.8,8.4,20.8c0.9,2,1.6,4.2,2.6,6.2c0.6-1.3,1.2-2.7,1.7-4
		c2.8-6.8,5.5-13.5,8.3-20.3c0.4-0.9,0.7-1.8,1.1-2.6c0.6-0.2,1.2-0.1,1.9-0.1c-2.2,5.4-4.5,11-6.7,16.4c-3.2,8-6.4,15.9-9.7,23.9
		c-0.6,0-1.2,0-1.8,0c1.3-3.7,2.9-7.2,4.4-10.9c-1.5-3.7-2.9-7.3-4.4-11C305.8,30.3,303.4,24.1,300.9,18z"/>
	<path d="M270.1,18c0,2.4,0.1,4.9,0,7.3c-0.5-0.7-0.9-1.5-1.5-2.2c-2.1-2.7-5.1-4.7-8.5-5.5c-3.4-0.9-6.9-0.4-10.1,1
		c-4.1,1.9-7.3,5.6-8.4,10.1c-0.5,1.7-0.4,3.5-0.4,5.3c0.4,5.1,3.6,9.8,8.1,12.1c2.3,1.2,4.9,1.8,7.5,1.7c2.7-0.1,5.3-0.7,7.6-2.2
		c2.4-1.4,4.4-3.6,5.7-6.1c0,2.8,0,5.5,0.1,8.3c0.5,0,1.2,0,1.7,0c0-9.9,0-19.9,0-29.8C271.2,18,270.7,18,270.1,18z M270,33.5
		c-0.3,2.6-1.2,5.2-2.8,7.2c-2.1,2.9-5.5,4.8-9.1,5.3c-1.8,0.1-3.7,0.2-5.3-0.4c-1.9-0.6-3.7-1.4-5.3-2.8c-2-1.7-3.6-4.1-4.4-6.6
		c-0.8-2.8-0.7-5.7,0.3-8.4c0.6-1.4,1.3-2.9,2.3-4.1c0.9-1,1.9-2,3-2.8c1.7-1,3.5-1.8,5.4-2c1.2-0.1,2.6-0.2,3.8,0
		c1.5,0.2,3,0.7,4.5,1.4C267.5,22.6,270.5,28.1,270,33.5z"/>
</g>
</svg>
